…
## Example

This is a basic example which shows you how to solve a common problem:

``` r
library(bis620.2022)
## basic example code
data(ukb_accel)
##compute spectral signature of the first 100 rows of ukb_accel and conduct frequency from time
ukb_accel[1:100, ] |>
      spectral_signature()
#> # A tibble: 50 × 4
#>         X     Y       Z  freq
#>     <dbl> <dbl>   <dbl> <dbl>
#>  1 19.8   33.7  103.     1.01
#>  2 26.0    4.23   4.18   1.03
#>  3  8.14   4.23   9.58   1.05
#>  4  7.50   3.91   4.86   1.08
#>  5  1.55   2.74   2.73   1.10
#>  6  4.32   2.09   0.820  1.12
#>  7  2.61   2.62   2.85   1.15
#>  8  3.87   2.88   2.55   1.18
#>  9  3.63   2.90   0.237  1.20
#> 10  0.862  2.60   2.82   1.23
#> # … with 40 more rows
…
